digraph "ControlFlowClass.whileMethod:()V" {
label = "ControlFlowClass.whileMethod:()V";
labelloc = "t";
0 [shape=rectangle, label=<0:<BR/>  0 : ICONST_1 	<BR/>  1 : ISTORE_1 	<BR/>>];
0 -> 2 [label="no jump"];
2 [shape=rectangle, label=<2:<BR/>  2 : ILOAD_1 	<BR/>  3 : BIPUSH 	10 <BR/>  5 : IF_ICMPGT 	0 10 <BR/>>];
2 -> 8 [label="no jump"];
2 -> 15 [label="jump"];
8 [shape=rectangle, label=<8:<BR/>  8 : ILOAD_1 	<BR/>  9 : ICONST_1 	<BR/>  10 : IADD 	<BR/>  11 : ISTORE_1 	<BR/>  12 : GOTO 	255 246 <BR/>>];
8 -> 2 [label="jump"];
15 [shape=rectangle, label=<15:<BR/>  15 : ILOAD_1 	<BR/>  16 : INVOKESTATIC 	0 4 <BR/>>];
15 -> 19 [label="no jump"];
19 [shape=rectangle, label=<19:<BR/>  19 : ILOAD_1 	<BR/>  20 : BIPUSH 	21 <BR/>  22 : IF_ICMPGE 	0 10 <BR/>>];
19 -> 25 [label="no jump"];
19 -> 32 [label="jump"];
25 [shape=rectangle, label=<25:<BR/>  25 : ILOAD_1 	<BR/>  26 : ICONST_1 	<BR/>  27 : IADD 	<BR/>  28 : ISTORE_1 	<BR/>  29 : GOTO 	255 246 <BR/>>];
25 -> 19 [label="jump"];
32 [shape=rectangle, label=<32:<BR/>  32 : ILOAD_1 	<BR/>  33 : INVOKESTATIC 	0 4 <BR/>>];
32 -> 36 [label="no jump"];
36 [shape=rectangle, label=<36:<BR/>  36 : ILOAD_1 	<BR/>  37 : BIPUSH 	21 <BR/>  39 : IF_ICMPNE 	0 10 <BR/>>];
36 -> 42 [label="no jump"];
36 -> 49 [label="jump"];
42 [shape=rectangle, label=<42:<BR/>  42 : ILOAD_1 	<BR/>  43 : ICONST_1 	<BR/>  44 : ISUB 	<BR/>  45 : ISTORE_1 	<BR/>  46 : GOTO 	255 246 <BR/>>];
42 -> 36 [label="jump"];
49 [shape=rectangle, label=<49:<BR/>  49 : ILOAD_1 	<BR/>  50 : INVOKESTATIC 	0 4 <BR/>>];
49 -> 53 [label="no jump"];
53 [shape=rectangle, label=<53:<BR/>  53 : ILOAD_1 	<BR/>  54 : BIPUSH 	10 <BR/>  56 : IF_ICMPLE 	0 10 <BR/>>];
53 -> 59 [label="no jump"];
53 -> 66 [label="jump"];
59 [shape=rectangle, label=<59:<BR/>  59 : ILOAD_1 	<BR/>  60 : ICONST_1 	<BR/>  61 : ISUB 	<BR/>  62 : ISTORE_1 	<BR/>  63 : GOTO 	255 246 <BR/>>];
59 -> 53 [label="jump"];
66 [shape=rectangle, label=<66:<BR/>  66 : ILOAD_1 	<BR/>  67 : INVOKESTATIC 	0 4 <BR/>>];
66 -> 70 [label="no jump"];
70 [shape=rectangle, label=<70:<BR/>  70 : ILOAD_1 	<BR/>  71 : IFLT 	0 10 <BR/>>];
70 -> 74 [label="no jump"];
70 -> 81 [label="jump"];
74 [shape=rectangle, label=<74:<BR/>  74 : ILOAD_1 	<BR/>  75 : ICONST_1 	<BR/>  76 : ISUB 	<BR/>  77 : ISTORE_1 	<BR/>  78 : GOTO 	255 248 <BR/>>];
74 -> 70 [label="jump"];
81 [shape=rectangle, label=<81:<BR/>  81 : ILOAD_1 	<BR/>  82 : INVOKESTATIC 	0 4 <BR/>  85 : RETURN 	<BR/>>];
}
