digraph "Destination.init:(I)V" {
label = "Destination.init:(I)V";
labelloc = "t";
0 [shape=rectangle, label=<0:<BR/>  0 : ILOAD_1 	<BR/>  1 : IFNE 	0 11 <BR/>>];
0 -> 4 [label="no jump"];
0 -> 12 [label="jump"];
4 [shape=rectangle, label=<4:<BR/>  4 : ALOAD_0 	<BR/>  5 : ICONST_1 	<BR/>  6 : PUTFIELD 	0 4 <BR/>  9 : GOTO 	0 8 <BR/>>];
4 -> 17 [label="jump"];
12 [shape=rectangle, label=<12:<BR/>  12 : ALOAD_0 	<BR/>  13 : ILOAD_1 	<BR/>  14 : PUTFIELD 	0 4 <BR/>>];
12 -> 17 [label="no jump"];
17 [shape=rectangle, label=<17:<BR/>  17 : RETURN 	<BR/>>];
}
