digraph "GetAndSetClass.getBB:(I)I" {
label = "GetAndSetClass.getBB:(I)I";
labelloc = "t";
0 [shape=rectangle, label=<0:<BR/>  0 : ALOAD_0 	<BR/>  1 : GETFIELD 	0 5 <BR/>  4 : ILOAD_1 	<BR/>  5 : IALOAD 	<BR/>  6 : IRETURN 	<BR/>>];
}
