digraph "GetAndSetClass.setAll:(II[I[ILMethodClass;LStaticClass;)V" {
label = "GetAndSetClass.setAll:(II[I[ILMethodClass;LStaticClass;)V";
labelloc = "t";
0 [shape=rectangle, label=<0:<BR/>  0 : ALOAD_0 	<BR/>  1 : ILOAD_1 	<BR/>  2 : PUTFIELD 	0 2 <BR/>  5 : ALOAD_0 	<BR/>  6 : ILOAD_2 	<BR/>  7 : PUTFIELD 	0 3 <BR/>  10 : ALOAD_0 	<BR/>  11 : ALOAD_3 	<BR/>  12 : PUTFIELD 	0 4 <BR/>  15 : ALOAD_0 	<BR/>  16 : ALOAD 	4 <BR/>  18 : PUTFIELD 	0 5 <BR/>  21 : ALOAD_0 	<BR/>  22 : ALOAD 	5 <BR/>  24 : PUTFIELD 	0 8 <BR/>  27 : ALOAD_0 	<BR/>  28 : ALOAD 	6 <BR/>  30 : PUTFIELD 	0 11 <BR/>  33 : RETURN 	<BR/>>];
}
