digraph "MethodClass.mathMethod:()V" {
label = "MethodClass.mathMethod:()V";
labelloc = "t";
0 [shape=rectangle, label=<0:<BR/>  0 : ALOAD_0 	<BR/>  1 : ALOAD_0 	<BR/>  2 : GETFIELD 	0 4 <BR/>  5 : ALOAD_0 	<BR/>  6 : GETFIELD 	0 3 <BR/>  9 : IADD 	<BR/>  10 : ALOAD_0 	<BR/>  11 : GETFIELD 	0 4 <BR/>  14 : ALOAD_0 	<BR/>  15 : GETFIELD 	0 3 <BR/>  18 : IDIV 	<BR/>  19 : ISUB 	<BR/>  20 : PUTFIELD 	0 4 <BR/>  23 : ALOAD_0 	<BR/>  24 : ALOAD_0 	<BR/>  25 : GETFIELD 	0 3 <BR/>  28 : ICONST_4 	<BR/>  29 : IDIV 	<BR/>  30 : PUTFIELD 	0 3 <BR/>  33 : RETURN 	<BR/>>];
}
