digraph "MethodClass.facultyRecursion:(I)I" {
label = "MethodClass.facultyRecursion:(I)I";
labelloc = "t";
0 [shape=rectangle, label=<0:<BR/>  0 : ILOAD_1 	<BR/>  1 : IFNE 	0 5 <BR/>>];
0 -> 4 [label="no jump"];
0 -> 6 [label="jump"];
4 [shape=rectangle, label=<4:<BR/>  4 : ICONST_1 	<BR/>  5 : IRETURN 	<BR/>>];
6 [shape=rectangle, label=<6:<BR/>  6 : ALOAD_0 	<BR/>  7 : ILOAD_1 	<BR/>  8 : ICONST_1 	<BR/>  9 : ISUB 	<BR/>  10 : INVOKEVIRTUAL 	0 7 <BR/>  13 : ILOAD_1 	<BR/>  14 : IMUL 	<BR/>  15 : IRETURN 	<BR/>>];
}
