digraph "StaticClass.<init>:()V" {
label = "StaticClass.&lt;init&gt;:()V";
labelloc = "t";
0 [shape=rectangle, label=<0:<BR/>  0 : ALOAD_0 	<BR/>  1 : INVOKESPECIAL 	0 10 <BR/>  4 : ALOAD_0 	<BR/>  5 : ICONST_1 	<BR/>  6 : GETSTATIC 	0 11 <BR/>  9 : IADD 	<BR/>  10 : PUTFIELD 	0 12 <BR/>  13 : RETURN 	<BR/>>];
}
