digraph "StaticClass.getBB:(I)I" {
label = "StaticClass.getBB:(I)I";
labelloc = "t";
0 [shape=rectangle, label=<0:<BR/>  0 : GETSTATIC 	0 4 <BR/>  3 : ILOAD_0 	<BR/>  4 : IALOAD 	<BR/>  5 : IRETURN 	<BR/>>];
}
