digraph "Euklid.ggt:(II)I" {
label = "Euklid.ggt:(II)I";
labelloc = "t";
0 [shape=rectangle, label=<0:<BR/>  0 : MOVE T(2) T(1) <BR/>  1 : IFNE T(2) 5 <BR/>register stack:<BR/>>];
0 -> 4 [label="no jump"];
0 -> 6 [label="jump"];
4 [shape=rectangle, label=<4:<BR/>  0 : MOVE T(3) T(0) <BR/>  1 : IRETURN T(3) <BR/>register stack:<BR/>>];
6 [shape=rectangle, label=<6:<BR/>  0 : MOVE T(4) T(0) <BR/>  1 : IFNE T(4) 5 <BR/>register stack:<BR/>>];
6 -> 10 [label="no jump"];
6 -> 12 [label="jump"];
10 [shape=rectangle, label=<10:<BR/>  0 : MOVE T(5) T(1) <BR/>  1 : IRETURN T(5) <BR/>register stack:<BR/>>];
12 [shape=rectangle, label=<12:<BR/>  0 : MOVE T(6) T(0) <BR/>  1 : MOVE T(7) T(1) <BR/>  2 : IF_ICMPLE T(7) T(6) 11 <BR/>register stack:<BR/>>];
12 -> 17 [label="no jump"];
12 -> 25 [label="jump"];
17 [shape=rectangle, label=<17:<BR/>  0 : MOVE T(8) T(0) <BR/>  1 : MOVE T(9) T(1) <BR/>  2 : ISUB T(10) T(8) T(9) <BR/>  3 : MOVE T(11) T(1) <BR/>  4 : CALL T(12) L(2)[	#2 = Methodref		Euklid.ggt:(II)I] T(10) T(11) <BR/>  5 : IRETURN T(12) <BR/>register stack:<BR/>>];
25 [shape=rectangle, label=<25:<BR/>  0 : MOVE T(13) T(0) <BR/>  1 : MOVE T(14) T(1) <BR/>  2 : MOVE T(15) T(0) <BR/>  3 : ISUB T(16) T(14) T(15) <BR/>  4 : CALL T(17) L(2)[	#2 = Methodref		Euklid.ggt:(II)I] T(13) T(16) <BR/>  5 : IRETURN T(17) <BR/>register stack:<BR/>>];
}
