digraph "GetAndSetClass.getValueFromMethodsArray:(I)I" {
label = "GetAndSetClass.getValueFromMethodsArray:(I)I";
labelloc = "t";
0 [shape=rectangle, label=<0:<BR/>  0 : MOVE T(2) T(0) <BR/>  1 : GETFIELD T(3) L(8)[	#8 = Fieldref		GetAndSetClass.methods:LMethodClass;] T(2) <BR/>  2 : GETFIELD T(4) L(12)[	#12 = Fieldref		MethodClass.array:[I] T(3) <BR/>  3 : MOVE T(5) T(1) <BR/>  4 : GETELEMENT T(6) 10 T(4) T(5) <BR/>  5 : MOVE T(7) T(6) <BR/>  6 : IRETURN T(7) <BR/>register stack:<BR/>>];
}
