digraph "GetAndSetClass.getA:()I" {
label = "GetAndSetClass.getA:()I";
labelloc = "t";
0 [shape=rectangle, label=<0:<BR/>  0 : MOVE T(1) T(0) <BR/>  1 : GETFIELD T(2) L(2)[	#2 = Fieldref		GetAndSetClass.a:I] T(1) <BR/>  2 : IRETURN T(2) <BR/>register stack:<BR/>>];
}
