digraph "StaticClass.mathWithConstVals:()I" {
label = "StaticClass.mathWithConstVals:()I";
labelloc = "t";
0 [shape=rectangle, label=<0:<BR/>  0 : NEW T(0) L(13)[	#13 = Class		StaticClass] <BR/>  1 : DISPATCH L(14)[	#14 = Methodref		StaticClass.&lt;init&gt;:()V] T(0) <BR/>  2 : MOVE L(15)[	#15 = Fieldref		StaticClass.preInit:LStaticClass;] T(0) <BR/>  3 : MOVE T(1) 3 <BR/>  4 : MOVE T(2) L(15)[	#15 = Fieldref		StaticClass.preInit:LStaticClass;] <BR/>  5 : GETFIELD T(3) L(12)[	#12 = Fieldref		StaticClass.initVal:I] T(2) <BR/>  6 : IADD T(4) T(1) T(3) <BR/>  7 : MOVE L(16)[	#16 = Fieldref		Main.b:I] T(4) <BR/>  8 : MOVE T(5) 63306 <BR/>  9 : MOVE T(6) T(5) <BR/>  10 : IRETURN T(6) <BR/>register stack:<BR/>>];
}
