digraph "StaticClass.getBB:(I)I" {
label = "StaticClass.getBB:(I)I";
labelloc = "t";
0 [shape=rectangle, label=<0:<BR/>  0 : MOVE T(1) L(4)[	#4 = Fieldref		StaticClass.bb:[I] <BR/>  1 : MOVE T(2) T(0) <BR/>  2 : GETELEMENT T(3) 10 T(1) T(2) <BR/>  3 : IRETURN T(3) <BR/>register stack:<BR/>>];
}
