digraph "StaticClass.initValues:()V" {
label = "StaticClass.initValues:()V";
labelloc = "t";
0 [shape=rectangle, label=<0:<BR/>  0 : MOVE T(0) 10 <BR/>  1 : MOVE L(1)[	#1 = Fieldref		StaticClass.a:I] T(0) <BR/>  2 : MOVE T(1) 200 <BR/>  3 : MOVE L(2)[	#2 = Fieldref		StaticClass.b:I] T(1) <BR/>  4 : MOVE T(2) L(1)[	#1 = Fieldref		StaticClass.a:I] <BR/>  5 : MOVE T(3) 50 <BR/>  6 : IADD T(4) T(2) T(3) <BR/>  7 : NEWARRAY T(5) 10 T(4) <BR/>  8 : MOVE L(3)[	#3 = Fieldref		StaticClass.aa:[I] T(5) <BR/>  9 : MOVE T(6) L(3)[	#3 = Fieldref		StaticClass.aa:[I] <BR/>  10 : MOVE T(7) L(1)[	#1 = Fieldref		StaticClass.a:I] <BR/>  11 : MOVE T(8) L(1)[	#1 = Fieldref		StaticClass.a:I] <BR/>  12 : MOVE T(9) 2 <BR/>  13 : IMUL T(10) T(8) T(9) <BR/>  14 : SETELEMENT T(6) 10 T(7) T(10) <BR/>  15 : MOVE T(11) L(2)[	#2 = Fieldref		StaticClass.b:I] <BR/>  16 : MOVE T(12) 3 <BR/>  17 : IMUL T(13) T(11) T(12) <BR/>  18 : NEWARRAY T(14) 10 T(13) <BR/>  19 : MOVE L(4)[	#4 = Fieldref		StaticClass.bb:[I] T(14) <BR/>  20 : MOVE T(15) L(4)[	#4 = Fieldref		StaticClass.bb:[I] <BR/>  21 : MOVE T(16) L(2)[	#2 = Fieldref		StaticClass.b:I] <BR/>  22 : MOVE T(17) L(2)[	#2 = Fieldref		StaticClass.b:I] <BR/>  23 : MOVE T(18) 4 <BR/>  24 : IDIV T(19) T(17) T(18) <BR/>  25 : SETELEMENT T(15) 10 T(16) T(19) <BR/>  26 : NEW T(20) L(5)[	#5 = Class		MethodClass] <BR/>  27 : DISPATCH L(6)[	#6 = Methodref		MethodClass.&lt;init&gt;:()V] T(20) <BR/>  28 : MOVE L(7)[	#7 = Fieldref		StaticClass.methods:LMethodClass;] T(20) <BR/>  29 : RETURN <BR/>register stack:<BR/>>];
}
