digraph "ControlFlowClass.wideTest:()V" {
label = "ControlFlowClass.wideTest:()V";
labelloc = "t";
0 [shape=rectangle, label=<0:<BR/>  1080 : CALL L(4)[	#4 = Methodref		System.print:(I)V] 407847 <BR/>  1081 : RETURN <BR/>register stack:<BR/>>];
}
