digraph "Euklid.<init>:()V" {
label = "Euklid.&lt;init&gt;:()V";
labelloc = "t";
0 [shape=rectangle, label=<0:<BR/>  1 : DISPATCH L(1)[	#1 = Methodref		java/lang/Object.&lt;init&gt;:()V] T(0) <BR/>  2 : RETURN <BR/>register stack:<BR/>>];
}
