digraph "Euklid.ggt:(II)I" {
label = "Euklid.ggt:(II)I";
labelloc = "t";
0 [shape=rectangle, label=<0:<BR/>  1 : IFNE T(1) 5 <BR/>register stack:<BR/>>];
0 -> 4 [label="no jump"];
0 -> 6 [label="jump"];
4 [shape=rectangle, label=<4:<BR/>  1 : IRETURN T(0) <BR/>register stack:<BR/>>];
6 [shape=rectangle, label=<6:<BR/>  1 : IFNE T(0) 5 <BR/>register stack:<BR/>>];
6 -> 10 [label="no jump"];
6 -> 12 [label="jump"];
10 [shape=rectangle, label=<10:<BR/>  1 : IRETURN T(1) <BR/>register stack:<BR/>>];
12 [shape=rectangle, label=<12:<BR/>  2 : IF_ICMPLE T(1) T(0) 11 <BR/>register stack:<BR/>>];
12 -> 17 [label="no jump"];
12 -> 25 [label="jump"];
17 [shape=rectangle, label=<17:<BR/>  2 : ISUB T(10) T(0) T(1) <BR/>  4 : CALL T(12) L(2)[	#2 = Methodref		Euklid.ggt:(II)I] T(10) T(1) <BR/>  5 : IRETURN T(12) <BR/>register stack:<BR/>>];
25 [shape=rectangle, label=<25:<BR/>  3 : ISUB T(16) T(1) T(0) <BR/>  4 : CALL T(17) L(2)[	#2 = Methodref		Euklid.ggt:(II)I] T(0) T(16) <BR/>  5 : IRETURN T(17) <BR/>register stack:<BR/>>];
}
