digraph "SpaceShip.<init>:()V" {
label = "SpaceShip.&lt;init&gt;:()V";
labelloc = "t";
0 [shape=rectangle, label=<0:<BR/>  1 : DISPATCH L(1)[	#1 = Methodref		java/lang/Object.&lt;init&gt;:()V] T(0) <BR/>  4 : PUTFIELD L(2)[	#2 = Fieldref		SpaceShip.position:I] T(0) 0 <BR/>  7 : PUTFIELD L(3)[	#3 = Fieldref		SpaceShip.speed:I] T(0) 0 <BR/>  9 : NEWARRAY T(7) 10 2 <BR/>  10 : MOVE L(4)[	#4 = Fieldref		SpaceShip.spacePortPositions:[I] T(7) <BR/>  14 : SETELEMENT L(4)[	#4 = Fieldref		SpaceShip.spacePortPositions:[I] 10 0 5 <BR/>  20 : GETELEMENT T(16) 10 L(4)[	#4 = Fieldref		SpaceShip.spacePortPositions:[I] 0 <BR/>  21 : IMUL T(17) 8 T(16) <BR/>  22 : SETELEMENT L(4)[	#4 = Fieldref		SpaceShip.spacePortPositions:[I] 10 1 T(17) <BR/>  23 : RETURN <BR/>register stack:<BR/>>];
}
